<!-- Generator: Adobe Illustrator 21.0.2, SVG Export Plug-In  -->
<svg version="1.1"
	 xmlns="http://www.w3.org/2000/svg" xmlns:xlink="http://www.w3.org/1999/xlink" xmlns:a="http://ns.adobe.com/AdobeSVGViewerExtensions/3.0/"
	 x="0px" y="0px" width="197px" height="22px" viewBox="0 0 197 22" style="enable-background:new 0 0 197 22;"
	 xml:space="preserve">
<style type="text/css">
	.st0{fill:#FFFFFF;}
	.st1{fill:#E52127;}
</style>
<defs>
</defs>
<g>
	<path class="st0" d="M34.5,17.2l4.2-12.4c0.2-0.5,0.8-0.9,1.3-0.9h8.5L49.9,0h-9.5C37.3,0,34,2.3,33,5.2l-4,11.6
		c-1,2.9,0.8,5.2,3.9,5.2h9.5l1.3-3.9h-8.5C34.7,18.1,34.4,17.7,34.5,17.2"/>
	<path class="st0" d="M60.5,4.8l-4.2,12.4c-0.2,0.5-0.7,0.9-1.3,0.9h-1.8c-0.5,0-0.9-0.4-0.7-0.9l4.2-12.4c0.2-0.5,0.8-0.9,1.3-0.9
		h1.8C60.4,3.9,60.7,4.3,60.5,4.8 M62.3,0h-3.8C55.3,0,52,2.3,51,5.2l-4,11.6c-1,2.9,0.8,5.2,3.9,5.2h3.8c3.1,0,6.4-2.3,7.4-5.2
		l4-11.6C67.2,2.3,65.4,0,62.3,0"/>
	<path class="st0" d="M105.6,4.8L104.2,9h-3.8l1.4-4.2c0.2-0.5,0.7-0.9,1.3-0.9h1.8C105.4,3.9,105.8,4.3,105.6,4.8 M107.3,0h-3.8
		c-3.1,0-6.4,2.3-7.4,5.2L90.4,22h5.6l2.6-7.8h3.8L99.8,22h5.8l5.7-16.8C112.2,2.3,110.4,0,107.3,0"/>
	<path class="st0" d="M125.1,0h-9.4l-7.4,22h5.5l6.1-18.1h1.5h1.3c0.6,0,0.9,0.4,0.7,0.9L117.5,22h5.8L129,5.2
		C130,2.3,128.2,0,125.1,0"/>
	<path class="st0" d="M141.6,4.9l-4.2,12.4c-0.2,0.5-0.7,0.9-1.3,0.9h-2.9L138,3.9h2.9C141.5,3.9,141.8,4.4,141.6,4.9 M143.3,0h-9.5
		l-7.4,22h9.5c3.1,0,6.4-2.3,7.4-5.2l4-11.6C148.2,2.3,146.4,0,143.3,0"/>
	<path class="st0" d="M88.3,0H70.6l-7.4,22h5.5l6.1-18h3.8l-6.1,18H78l6.1-18h1h1.8c0.5,0,0.9,0.4,0.7,0.9L81.8,22h5.8l5.7-16.8
		C94.2,2.3,91.5,0,88.3,0"/>
	<polygon class="st0" points="182.2,0 168.2,0 166.9,3.9 171.2,3.9 165.1,22 170.5,22 176.6,3.9 180.9,3.9 	"/>
	<path class="st0" d="M159.5,4.8L158.1,9h-3.8l1.4-4.2c0.2-0.5,0.7-0.9,1.3-0.9h1.8C159.4,3.9,159.7,4.3,159.5,4.8 M161.2,0h-3.8
		c-3.1,0-6.4,2.3-7.4,5.2L144.3,22h5.6l2.6-7.8h3.8l-2.6,7.8h5.8l5.7-16.8C166.1,2.3,164.4,0,161.2,0"/>
	<path class="st0" d="M191.1,4.8l-4.2,12.4c-0.2,0.5-0.8,0.9-1.3,0.9h-1.8c-0.6,0-0.9-0.4-0.7-0.9l4.2-12.4c0.2-0.5,0.8-0.9,1.3-0.9
		h1.8C190.9,3.9,191.2,4.3,191.1,4.8 M192.8,0h-3.8c-3.1,0-6.4,2.3-7.4,5.2l-4,11.6c-1,2.9,0.8,5.2,3.9,5.2h3.8
		c3.1,0,6.4-2.3,7.4-5.2l4-11.6C197.7,2.3,195.9,0,192.8,0"/>
	<path class="st1" d="M13.1,0C10,0,6.7,2.3,5.7,5.2L0,22l14.9,0h1c3.1,0,6.4-2.3,7.4-5.2L29.1,0H13.1z"/>
	<path class="st0" d="M23.8,3.9L23.8,3.9h-9.7c0,0-3.9-0.1-5.3,4.1l-2.2,5.8h3.9c0,0,1.9-4.9,1.9-5c0.6-1.4,2-1.3,2-1.3h4l0,0h4.1
		L23.8,3.9z"/>
	<path class="st0" d="M5,18.1L5,18.1h9.7c0,0,3.7,0.3,5.3-4.1l2.3-6l-4.1,0.5c0,0-1.8,4.6-1.8,4.7c-0.6,1.4-2,1.3-2,1.3h-4l0,0H6.3
		L5,18.1z"/>
</g>
</svg>
