<!-- Generator: Adobe Illustrator 21.0.2, SVG Export Plug-In  -->
<svg version="1.1"
	 xmlns="http://www.w3.org/2000/svg" xmlns:xlink="http://www.w3.org/1999/xlink" xmlns:a="http://ns.adobe.com/AdobeSVGViewerExtensions/3.0/"
	 x="0px" y="0px" width="268.4px" height="55.4px" viewBox="0 0 268.4 55.4" style="enable-background:new 0 0 268.4 55.4;"
	 xml:space="preserve">
<style type="text/css">
	.st0{fill:#FFFFFF;}
</style>
<defs>
</defs>
<g>
	<path class="st0" d="M72.2,25.2l5.3-24.9h10.7c1,0,1.9,0.2,2.6,0.6c0.8,0.4,1.4,0.9,1.9,1.6c0.5,0.7,0.9,1.4,1.2,2.2
		c0.3,0.8,0.4,1.7,0.4,2.6c0,0.9-0.1,1.7-0.4,2.6c-0.3,0.8-0.6,1.6-1.1,2.4s-1.1,1.5-1.7,2.1c-0.7,0.6-1.4,1.2-2.2,1.6l3.2,9.3h-6.5
		l-2.7-8h-3.3l-1.7,8H72.2z M85.5,12.1c0.4,0,0.7-0.1,1.1-0.3c0.4-0.2,0.7-0.5,0.9-0.9c0.3-0.4,0.5-0.8,0.7-1.4
		c0.2-0.5,0.3-1.1,0.3-1.6c0-0.8-0.2-1.4-0.5-1.9c-0.3-0.5-0.7-0.7-1.2-0.7h-4.6l-1.4,6.8H85.5z"/>
	<path class="st0" d="M100.2,0.2h16.4l-1.1,5.1h-10.6l-1,4.8h9.1l-1,4.7h-9.1l-1.2,5.3h11l-1.1,5.1H94.9L100.2,0.2z"/>
	<path class="st0" d="M120.4,0.2h10.1c1,0,1.8,0.2,2.6,0.6c0.8,0.4,1.4,0.9,1.9,1.6c0.5,0.7,0.9,1.4,1.2,2.2
		c0.3,0.8,0.4,1.7,0.4,2.6c0,1.2-0.3,2.4-0.8,3.6c-0.5,1.2-1.2,2.2-2.1,3.2c-0.9,0.9-1.9,1.7-3.1,2.3c-1.2,0.6-2.4,0.9-3.7,0.9h-4.6
		l-1.7,8h-5.8L120.4,0.2z M127.8,12.1c0.4,0,0.7-0.1,1.1-0.3c0.4-0.2,0.7-0.5,1-0.9c0.3-0.4,0.5-0.8,0.7-1.4
		c0.2-0.5,0.3-1.1,0.3-1.8c0-0.8-0.2-1.5-0.5-1.9c-0.4-0.4-0.8-0.6-1.2-0.6h-4l-1.4,6.8H127.8z"/>
	<path class="st0" d="M146.4,25.4c-1.5,0-2.8-0.2-3.9-0.7c-1.1-0.4-1.9-1-2.6-1.8s-1.2-1.7-1.5-2.7c-0.3-1-0.5-2.2-0.5-3.4
		c0-1.3,0.1-2.6,0.4-3.9l2.7-12.7h5.8L144.2,13c-0.2,1-0.3,2-0.3,2.8c0,0.6,0.1,1.2,0.2,1.8c0.1,0.5,0.3,1,0.6,1.4
		c0.3,0.4,0.6,0.7,1.1,0.9c0.5,0.2,1,0.3,1.7,0.3c0.9,0,1.7-0.2,2.4-0.6c0.7-0.4,1.3-1,1.8-1.6c0.5-0.7,0.9-1.5,1.3-2.3
		c0.4-0.9,0.6-1.8,0.8-2.7l2.7-12.7h5.8L159.6,13c-0.4,1.7-0.9,3.3-1.7,4.8c-0.7,1.5-1.7,2.8-2.8,3.9s-2.4,2-3.8,2.6
		C149.9,25,148.2,25.4,146.4,25.4z"/>
	<path class="st0" d="M166.7,0.2h16.4L182,5.3h-10.6l-1,4.8h9.1l-1,4.7h-9.1l-1.2,5.3h10.9l-1.1,5.1h-16.7L166.7,0.2z"/>
	<path class="st0" d="M189.6,25.4c-1.8,0-3.5-0.3-5.2-0.8c-1.7-0.5-3.1-1.3-4.4-2.3l3.6-5c0,0.1,0.3,0.3,0.7,0.7s0.9,0.7,1.6,1
		c0.6,0.3,1.4,0.6,2.2,0.9c0.8,0.3,1.7,0.4,2.6,0.4c1.1,0,1.9-0.2,2.4-0.6c0.5-0.4,0.7-0.9,0.7-1.6c0-0.4-0.1-0.7-0.4-1
		c-0.3-0.3-0.6-0.5-1.1-0.7c-0.5-0.2-1-0.4-1.6-0.6s-1.2-0.4-1.9-0.6c-1.7-0.6-2.9-1.3-3.8-2.1c-0.8-0.8-1.2-1.9-1.2-3.3
		c0-1.5,0.3-2.8,0.9-4c0.6-1.2,1.4-2.2,2.4-3c1-0.8,2.1-1.4,3.4-1.9c1.3-0.4,2.6-0.6,4-0.6c0.8,0,1.7,0.1,2.4,0.2
		c0.8,0.2,1.5,0.4,2.2,0.6s1.3,0.6,1.9,0.9c0.6,0.3,1.1,0.7,1.6,1l-3.5,4.8c0-0.1-0.2-0.3-0.6-0.5c-0.3-0.3-0.8-0.5-1.3-0.8
		c-0.5-0.3-1.1-0.5-1.8-0.7s-1.4-0.3-2.1-0.3c-1,0-1.8,0.2-2.3,0.7c-0.6,0.4-0.8,1-0.8,1.8c0,0.7,0.4,1.2,1.1,1.5s1.8,0.7,3.1,1.1
		c0.9,0.3,1.7,0.6,2.4,0.9c0.7,0.3,1.4,0.7,1.9,1.2s0.9,1,1.2,1.6c0.3,0.6,0.4,1.4,0.4,2.2c0,1.7-0.3,3.1-0.9,4.2s-1.5,2.1-2.5,2.8
		c-1,0.7-2.2,1.3-3.5,1.6C192.2,25.3,190.9,25.4,189.6,25.4z"/>
	<path class="st0" d="M210.9,5.3h-7.1l1.1-5.1h20l-1.1,5.1h-7.1l-4.2,19.9h-5.8L210.9,5.3z"/>
	<path class="st0" d="M231.6,25.4c-1.5,0-2.9-0.3-4-0.9c-1.2-0.6-2.2-1.3-2.9-2.3c-0.8-1-1.4-2.1-1.8-3.3c-0.4-1.2-0.6-2.6-0.6-3.9
		c0-1.3,0.2-2.5,0.6-3.7c0.4-1.2,0.9-2.4,1.6-3.5s1.5-2.1,2.4-3.1c0.9-0.9,1.9-1.7,3-2.4c1.1-0.7,2.3-1.2,3.5-1.6
		c1.2-0.4,2.5-0.6,3.8-0.6c1.5,0,2.8,0.3,4,0.9c1.2,0.6,2.1,1.4,2.9,2.3c0.8,1,1.4,2.1,1.8,3.3s0.6,2.6,0.6,3.9
		c0,1.9-0.4,3.7-1.2,5.5c-0.8,1.8-1.9,3.4-3.3,4.8c-1.4,1.4-2.9,2.5-4.7,3.4C235.5,24.9,233.6,25.4,231.6,25.4z M232.8,20.2
		c1.2,0,2.3-0.3,3.3-0.9c1-0.6,1.8-1.3,2.4-2.2s1.2-1.9,1.5-3c0.4-1.1,0.5-2.2,0.5-3.2c0-0.8-0.1-1.5-0.3-2.2
		c-0.2-0.7-0.5-1.3-0.8-1.8c-0.4-0.5-0.9-0.9-1.4-1.2s-1.3-0.5-2.1-0.5c-1.2,0-2.3,0.3-3.2,0.9c-1,0.6-1.8,1.3-2.5,2.2
		c-0.7,0.9-1.2,1.9-1.5,3c-0.4,1.1-0.5,2.2-0.5,3.2c0,0.8,0.1,1.5,0.3,2.2c0.2,0.7,0.5,1.3,0.8,1.8c0.4,0.5,0.9,0.9,1.4,1.3
		C231.3,20.1,232,20.2,232.8,20.2z"/>
	<path class="st0" d="M255.4,25.4c-1.8,0-3.5-0.3-5.2-0.8c-1.7-0.5-3.1-1.3-4.4-2.3l3.6-5c0,0.1,0.3,0.3,0.7,0.7s0.9,0.7,1.6,1
		c0.6,0.3,1.4,0.6,2.2,0.9c0.8,0.3,1.7,0.4,2.6,0.4c1.1,0,1.9-0.2,2.4-0.6c0.5-0.4,0.7-0.9,0.7-1.6c0-0.4-0.1-0.7-0.4-1
		c-0.3-0.3-0.6-0.5-1.1-0.7c-0.5-0.2-1-0.4-1.6-0.6s-1.2-0.4-1.9-0.6c-1.7-0.6-2.9-1.3-3.8-2.1c-0.8-0.8-1.2-1.9-1.2-3.3
		c0-1.5,0.3-2.8,0.9-4c0.6-1.2,1.4-2.2,2.4-3c1-0.8,2.1-1.4,3.4-1.9c1.3-0.4,2.6-0.6,4-0.6c0.8,0,1.7,0.1,2.4,0.2
		c0.8,0.2,1.5,0.4,2.2,0.6s1.3,0.6,1.9,0.9c0.6,0.3,1.1,0.7,1.6,1l-3.5,4.8c0-0.1-0.2-0.3-0.6-0.5c-0.3-0.3-0.8-0.5-1.3-0.8
		c-0.5-0.3-1.1-0.5-1.8-0.7s-1.4-0.3-2.1-0.3c-1,0-1.8,0.2-2.3,0.7c-0.6,0.4-0.8,1-0.8,1.8c0,0.7,0.4,1.2,1.1,1.5s1.8,0.7,3.1,1.1
		c0.9,0.3,1.7,0.6,2.4,0.9c0.7,0.3,1.4,0.7,1.9,1.2s0.9,1,1.2,1.6c0.3,0.6,0.4,1.4,0.4,2.2c0,1.7-0.3,3.1-0.9,4.2s-1.5,2.1-2.5,2.8
		c-1,0.7-2.2,1.3-3.5,1.6C257.9,25.3,256.7,25.4,255.4,25.4z"/>
</g>
<g id="XMLID_1_">
	<path class="st0" d="M2,27.2h3.1c0.5,2.5,1.5,4.7,2.8,6.7l-2.2,2.2c-0.8,0.8-0.8,2,0,2.8l2.4,2.4c0.8,0.8,2,0.8,2.8,0l2.2-2.2
		c2,1.4,4.3,2.3,6.7,2.8V45c0,1.1,0.9,2,2,2h3.4c1.1,0,2-0.9,2-2v-3.1c2.5-0.5,4.7-1.5,6.7-2.8l2.2,2.2c0.8,0.8,2,0.8,2.8,0l2.4-2.4
		c0.8-0.8,0.8-2,0-2.8l-2.2-2.2c1.4-2,2.3-4.3,2.8-6.7H45c1.1,0,2-0.9,2-2v-3.3c0-1.1-0.9-2-2-2h-3.1c-0.5-2.5-1.5-4.7-2.8-6.7
		l2.2-2.2c0.8-0.8,0.8-2,0-2.8l-2.4-2.4c-0.8-0.8-2-0.8-2.8,0l-2.2,2.2c-2-1.4-4.3-2.3-6.7-2.8V2c0-1.1-0.9-2-2-2h-3.4
		c-1.1,0-2,0.9-2,2v3.1c-2.5,0.5-4.7,1.5-6.7,2.8l-2.2-2.2c-0.8-0.8-2-0.8-2.8,0L5.7,8.1c-0.8,0.8-0.8,2,0,2.8l2.2,2.2
		c-1.4,2-2.3,4.3-2.8,6.7H2c-1.1,0-2,0.9-2,2v3.4C0,26.3,0.9,27.2,2,27.2z M23.5,15c4.7,0,8.5,3.8,8.5,8.5S28.2,32,23.5,32
		S15,28.2,15,23.5S18.8,15,23.5,15z"/>
</g>
<g>
	<g>
		<polygon class="st0" points="145.2,35.1 122.6,35.1 122.6,40.1 133.5,40.1 122.3,50.6 122.3,54.8 145.1,54.8 145.1,49.8 
			133.8,49.8 145.2,39.3 		"/>
	</g>
	<g>
		<path class="st0" d="M109.4,55.4c9,0,11.3-2.3,11.3-7.4V35.1h-7.2v12.1c0,2-1.7,3.2-4.2,3.2c-2.5,0-4.2-1.2-4.2-3.3V35.1H98V48
			C98,53,100.4,55.4,109.4,55.4"/>
	</g>
	<g>
		<path class="st0" d="M158.3,55.4c9,0,11.3-2.3,11.3-7.4V35.1h-7.2v12.1c0,2-1.7,3.2-4.2,3.2c-2.5,0-4.2-1.2-4.2-3.3V35.1h-7.2V48
			C146.9,53,149.3,55.4,158.3,55.4"/>
	</g>
	<g>
		<rect x="197.8" y="35.1" class="st0" width="7.4" height="19.7"/>
	</g>
	<g>
		<polygon class="st0" points="196.7,35.1 186.9,35.1 178.9,41.9 178.9,35.1 171.5,35.1 171.5,54.8 178.9,54.8 178.9,47.8 
			186.3,54.8 196.3,54.8 185.4,44.7 		"/>
	</g>
	<g>
		<path class="st0" d="M80.4,40.6c0-1.5,2.3-1.6,3-1.6c0.8,0,2.5,0.3,3.7,2.2h8.4c0-3.7-3.5-6.7-12-6.7c-9.5,0-11.1,4.2-11.1,6.5
			c0,4.4,3.4,5.7,10.8,6.5c0.6,0.1,4.5-0.1,4.5,1.7c0,1.4-2.2,1.5-3,1.5c-0.8,0-2.3-0.1-3.5-2.3H72c0,4.3,2.9,6.8,12.8,6.8
			c9.1,0,11.5-3.7,11.5-6.5c0-2.7-1.9-5.5-9.6-6.5C83.4,41.9,80.4,41.7,80.4,40.6"/>
	</g>
</g>
</svg>
