<!-- Generator: Adobe Illustrator 21.0.2, SVG Export Plug-In  -->
<svg version="1.1"
	 xmlns="http://www.w3.org/2000/svg" xmlns:xlink="http://www.w3.org/1999/xlink" xmlns:a="http://ns.adobe.com/AdobeSVGViewerExtensions/3.0/"
	 x="0px" y="0px" width="315.7px" height="590.6px" viewBox="0 0 315.7 590.6" style="enable-background:new 0 0 315.7 590.6;"
	 xml:space="preserve">
<style type="text/css">
	.st0{opacity:0.8;}
	.st1{opacity:0.2;fill:#606060;}
	.st2{opacity:0.2;}
	.st3{fill:#606060;}
</style>
<defs>
</defs>
<g class="st0">
	<g>
		<circle class="st1" cx="7" cy="583.6" r="7"/>
		<circle class="st1" cx="307.5" cy="283.2" r="8.2"/>
		<ellipse transform="matrix(0.365 -0.931 0.931 0.365 -183.6271 516.4136)" class="st1" cx="286.8" cy="392.8" rx="8.5" ry="8.5"/>
		
			<ellipse transform="matrix(0.187 -0.9824 0.9824 0.187 -87.6957 572.7247)" class="st1" cx="302.2" cy="339.3" rx="8.4" ry="8.4"/>
		<ellipse transform="matrix(0.9786 -0.2058 0.2058 0.9786 -39.1038 66.7021)" class="st1" cx="301" cy="221.3" rx="7.5" ry="7.5"/>
		
			<ellipse transform="matrix(0.9164 -0.4004 0.4004 0.9164 -41.586 126.6615)" class="st1" cx="282.3" cy="162.9" rx="7.5" ry="7.5"/>
		
			<ellipse transform="matrix(0.8268 -0.5625 0.5625 0.8268 -19.9665 163.4413)" class="st1" cx="255.4" cy="114.1" rx="7.4" ry="7.4"/>
		
			<ellipse transform="matrix(0.8268 -0.5625 0.5625 0.8268 -2.5467 135.2371)" class="st1" cx="218.3" cy="71.8" rx="7.4" ry="7.4"/>
		<ellipse transform="matrix(0.5754 -0.8179 0.8179 0.5754 47.0305 159.104)" class="st1" cx="176.7" cy="34.3" rx="8" ry="8"/>
		<ellipse transform="matrix(0.3973 -0.9177 0.9177 0.3973 69.3519 120.4744)" class="st1" cx="126.4" cy="7.4" rx="7.4" ry="7.4"/>
		
			<ellipse transform="matrix(0.9826 -0.1856 0.1856 0.9826 -106.2659 21.7095)" class="st1" cx="62.8" cy="578.4" rx="8.2" ry="8.2"/>
		
			<ellipse transform="matrix(0.9244 -0.3815 0.3815 0.9244 -204.7789 88.8188)" class="st1" cx="121.6" cy="560.9" rx="9" ry="8.5"/>
		
			<ellipse transform="matrix(0.8382 -0.5454 0.5454 0.8382 -264.1124 179.7499)" class="st1" cx="170.9" cy="535" rx="8.1" ry="8.1"/>
	</g>
</g>
<g transform="translate(1 1)" class="st2">
	<g>
		<g>
			<g>
				<path class="st3" d="M237.9,472.8c-1.8-1-3.8-1.3-5.4-0.9c-1.2,0.3-2.2,1-2.9,2.2c-1.5,1.9-3.4,4-3.8,4.3
					c-3.5,2.4-6.3,2.1-9.3-0.9l-15.5-15.6c-0.1-0.1-0.2-0.2-0.3-0.3c0,0,0,0-0.1,0l-1-1c-2.9-3.1-3.2-5.7-0.9-9.3
					c0.4-0.4,2.5-2.4,4.3-3.8c1-0.7,1.9-1.8,2.2-2.9c0.4-1.6,0-3.5-1-5.4c-0.3-0.4-6.3-10.7-11.9-13.7c-2.8-1.5-6.3-0.9-8.5,1.3
					l-3.7,3.7c-7.4,7.4-9,15.9-4.6,25.3c1.5,3.1,3.7,6.2,6.5,9l30.2,30.2c2.4,2.4,4.7,4.3,7.2,5.6c4.1,2.4,8.2,3.5,12.1,3.5
					c5.4,0,10.6-2.4,15.2-6.9l3.7-3.8c2.4-2.2,2.8-5.7,1.3-8.5C248.6,479.1,238.3,473.1,237.9,472.8z M248,491.3l-3.7,3.7
					c-6.9,6.9-14.7,7.9-23.7,2.9c-2.2-1.2-4.4-2.9-6.5-5L184,462.6c-2.6-2.6-4.6-5.4-5.9-8.2c-3.8-8.2-2.5-15.4,4-21.9l3.7-3.7
					c1.3-1.3,3.4-1.6,4.9-0.7c4.9,2.5,10.7,12.4,10.7,12.5c0.7,1.2,1,2.4,0.7,3.2c-0.1,0.4-0.4,0.9-1,1.2l-0.1,0.1
					c-1.2,1.2-4.3,3.7-4.9,4.6c-0.9,1.3-1.4,2.5-1.8,3.7c-1-2-1.8-4.4-2.1-7c-0.1-0.9-0.7-1.5-1.6-1.3c-0.9,0.1-1.5,0.9-1.3,1.6
					c1,10.3,9.1,16.9,9.4,17.2l0,0l15.6,15.6c4,4,8.2,4.4,12.9,1.3c1-0.6,3.5-3.5,4.6-4.9v-0.1c0.3-0.6,0.6-0.9,1.2-1
					c0.9-0.1,2.1,0.1,3.2,0.7c0,0,10,5.9,12.5,10.7C249.7,487.9,249.4,490,248,491.3z"/>
				<path class="st3" d="M249.5,442.2H248v-10.3c0-0.6-0.4-1.2-1-1.3c-0.6-0.3-1.2,0-1.6,0.4l-8.8,11.8c-0.3,0.4-0.4,1-0.1,1.5
					c0.3,0.6,0.7,0.9,1.3,0.9h7.4v4.4c0,0.9,0.6,1.5,1.5,1.5c0.9,0,1.5-0.6,1.5-1.5v-4.4h1.5c0.9,0,1.5-0.6,1.5-1.5
					C251,442.8,250.4,442.2,249.5,442.2z M245.1,442.2h-4.4l4.4-5.9V442.2z"/>
				<path class="st3" d="M234.8,448.1h-9.3l7.7-6.6c1.9-1.9,2.5-4.6,1.5-7.1c-0.9-2.5-3.1-4-5.6-4h-0.1c-4.1,0-7.4,3.2-7.4,7.4
					c0,0.9,0.6,1.5,1.5,1.5c0.9,0,1.5-0.6,1.5-1.5c0-2.5,1.9-4.4,4.4-4.4c1.5,0,2.5,0.7,3.1,2.1c0.4,1,0.4,2.6-0.7,3.8l-8.8,7.7
					c-0.9,0.7-1,1.8-0.7,2.6c0.3,0.9,1.2,1.5,2.2,1.5h10.9c0.9,0,1.5-0.6,1.5-1.5C236.3,448.6,235.7,448.1,234.8,448.1z"/>
				<path class="st3" d="M236.3,415.7c-13.8,0-25,11.2-25,25c0,4,0.9,7.9,2.8,11.3l-2.8,11.8c-0.1,0.6,0,1.2,0.4,1.5
					c0.3,0.3,0.6,0.4,1,0.4c0.1,0,0.3,0,0.4,0l10.9-3.2c3.7,2.1,7.9,3.2,12.2,3.2c13.8,0,25-11.2,25-25
					C261.3,426.9,250.1,415.7,236.3,415.7z M236.3,462.6c-4,0-7.9-1-11.3-3.1c-0.1-0.1-0.4-0.1-0.7-0.1c-0.1,0-0.3,0.1-0.4,0.1
					l-9.1,2.6l2.4-9.9c0.1-0.3,0-0.7-0.1-1c-1.8-3.2-2.6-6.9-2.6-10.6c0-12.2,9.9-22.1,22.1-22.1c12.2,0,22.1,9.7,22.1,21.9
					C258.3,452.8,248.5,462.6,236.3,462.6z"/>
			</g>
		</g>
	</g>
</g>
</svg>
